{
  "url": "https://molodeztom.gitlab.io/terminolo-git-tom/ImplementationGuide/austrian-terminology-server",
  "name": "termgit",
  "package-id": "austrian-terminology-server",
  "ig-ver": "0.9.2+20220516",
  "date": "Tue, 17 May, 2022 14:24:33 +0000",
  "errs": 3,
  "warnings": 3,
  "hints": 376,
  "version": "4.0.1",
  "tool": "5.0.0-snapshot1 (3)"
}